{
    "inputParams": {
        "deviceId": {
            "type": "string",
            "defaultValue": null
        }
    },
    "outputParams": {
        "devicePeripheralObj": {
            "type": "object",
            "defaultValue": null
        }
    },
    "connectors": [
        {
            "fromAction": "StartAction",
            "fromActionInstance": "1",
            "id": "StartConnector",
            "toAction": "devicePeripheral/GetDevicePeripheral.ovcact",
            "toActionInstance": "1"
        },
        {
            "fromAction": "devicePeripheral/GetDevicePeripheral.ovcact",
            "fromActionInstance": "1",
            "id": "EndConnector",
            "toAction": "EndAction",
            "toActionInstance": "1"
        }
    ]
}