{
    "inputParams": {
		"deviceId" :{"type": "string", "defaultValue": null},
		"deviceAlias":{"type": "string", "defaultValue": ""},
		"locationId" :{"type": "string", "defaultValue": ""},
		"printerIP":{"type": "string", "defaultValue": "0.0.0.0"},
        "deviceType" : {"type": "string", "defaultValue": "Ipad"},
		"printerType":{"type": "string", "defaultValue": "TCP"},
		"printerModel":{"type": "string", "defaultValue": "BIXOLON"},
		"printerVersion":{"type": "string", "defaultValue": "SRP-350II"},
		"printerAlias":{"type": "string", "defaultValue": "dishdPrinter"},
		"printerIsActive":{"type": "string", "defaultValue": "1"},
		"printerIsDeleted":{"type": "string", "defaultValue": "0"},
		"cashDrawerIP":{"type": "string", "defaultValue": "0.0.0.0"},
		"cashDrawerType":{"type": "string", "defaultValue": "BLUETOOTH"},
		"cashDrawerModel":{"type": "string", "defaultValue": "APG Cash cashDrawer"},
		"cashDrawerVersion":{"type": "string", "defaultValue": "470"},
		"cashDrawerAlias":{"type": "string", "defaultValue": "TILLY"},
		"cashDrawerIsActive":{"type": "string", "defaultValue": "1"},
		"cashDrawerIsDeleted":{"type": "string", "defaultValue": "0"},
		"deviceActive":{"type": "string", "defaultValue": ""},
		"resetDevice":{"type": "string", "defaultValue": "false"}
    },
    "outputParams": {
       	"returnCode": { "type": "string", "defaultValue": "default"},
    	"returnMsg": { "type": "string", "defaultValue": "default"}
    },    
    "connectors": [
        {
            "fromAction": "StartAction",
            "fromActionInstance": "1",  
            "id": "StartConnector",
            "toAction": "devicePeripheral/AddUpdateDevicePeripheral.ovcact",
            "toActionInstance": "1"
        },      
        {
            "fromAction": "devicePeripheral/AddUpdateDevicePeripheral.ovcact",
            "fromActionInstance": "1",
            "id": "EndConnector",
            "toAction": "EndAction",
            "toActionInstance": "1"
        }       

    ]    
}
