{
    "id": "devicePeripheral/GetDevicePeripheral.ovcact",
    "inputParams": {
        "deviceId": {
            "type": "string",
            "defaultValue": null
        }
    },
    "outputParams": {
        "devicePeripheralObj": {
            "type": "object",
            "defaultValue": null
        }
    },
    "switches": []
}